<?xml version="1.0" encoding="utf-8"?>
<!-- Generator: Adobe Illustrator 16.0.0, SVG Export Plug-In . SVG Version: 6.00 Build 0)  -->
<!DOCTYPE svg PUBLIC "-//W3C//DTD SVG 1.1//EN" "http://www.w3.org/Graphics/SVG/1.1/DTD/svg11.dtd">
<svg version="1.1" id="Layer_1" xmlns="http://www.w3.org/2000/svg" xmlns:xlink="http://www.w3.org/1999/xlink" x="0px" y="0px"
	 width="117.945px" height="32.5px" viewBox="0 0 117.945 32.5" enable-background="new 0 0 117.945 32.5" xml:space="preserve">
<g>
	<path fill="#0F346B" d="M83.284,24.855c-1.139,0-2.186,0.011-3.229-0.019c-0.123-0.003-0.293-0.208-0.353-0.354
		c-0.758-1.938-1.504-3.883-2.248-5.824c-0.033-0.083-0.033-0.207-0.092-0.25c-0.158-0.115-0.336-0.246-0.518-0.27
		c-0.066-0.007-0.242,0.272-0.242,0.422c-0.017,1.853-0.013,3.703-0.013,5.556c0,0.745,0,0.747-0.727,0.747
		c-0.746,0-1.49-0.02-2.234,0.008c-0.399,0.014-0.539-0.111-0.53-0.521c0.02-1.324,0.008-2.65,0.008-3.977
		c0-4.029,0.008-8.06-0.012-12.089c0-0.499,0.133-0.652,0.639-0.643c1.506,0.033,3.014,0.003,4.52,0.015
		c2.312,0.019,4.289,1.479,4.865,3.571c0.674,2.443-0.17,4.767-2.217,6.011c-0.377,0.229-0.428,0.423-0.26,0.828
		c0.823,2.006,1.616,4.029,2.416,6.049C83.136,24.314,83.185,24.525,83.284,24.855z M76.591,12.858c0,0.072,0,0.146,0,0.218
		c0,1.605,0,1.605,1.607,1.547c1.008-0.037,1.693-0.794,1.658-1.824c-0.041-1.213-0.806-1.682-2.697-1.66
		c-0.568,0.006-0.568,0.006-0.568,1.394C76.591,12.642,76.591,12.75,76.591,12.858z"/>
	<path fill="#0F346B" d="M85.089,16.234c0-2.669,0.009-5.338-0.01-8.006c-0.002-0.453,0.129-0.587,0.584-0.584
		c3.049,0.018,6.101,0.017,9.148,0c0.451-0.001,0.61,0.136,0.594,0.589c-0.029,0.743-0.035,1.489,0,2.232
		c0.027,0.511-0.123,0.693-0.664,0.685c-1.869-0.031-3.738-0.002-5.609-0.019c-0.409-0.005-0.588,0.088-0.567,0.542
		c0.035,0.799,0.028,1.598,0.002,2.395c-0.015,0.419,0.1,0.577,0.547,0.566c1.307-0.027,2.615,0.015,3.922-0.021
		c0.539-0.014,0.691,0.179,0.668,0.689c-0.037,0.725-0.037,1.454,0,2.178c0.025,0.518-0.176,0.648-0.664,0.639
		c-1.322-0.025-2.649,0.002-3.975-0.018c-0.383-0.004-0.508,0.125-0.496,0.502c0.021,0.764,0.022,1.525,0,2.289
		c-0.014,0.389,0.133,0.494,0.504,0.492c1.906-0.015,3.812,0.008,5.719-0.018c0.486-0.008,0.635,0.148,0.615,0.623
		c-0.031,0.798-0.018,1.598-0.004,2.396c0.004,0.344-0.115,0.48-0.476,0.479c-3.122-0.008-6.245-0.012-9.366,0.005
		c-0.468,0.003-0.476-0.233-0.476-0.577C85.091,21.607,85.089,18.921,85.089,16.234z"/>
	<path fill="#0F346B" d="M39.772,14.145c0,1.835,0.004,3.667,0,5.501c-0.01,3.09-2.312,5.313-5.392,5.213
		c-2.612-0.086-4.795-2.227-4.83-4.881c-0.053-3.956-0.012-7.914-0.021-11.872c-0.004-0.37,0.141-0.466,0.482-0.458
		c0.778,0.017,1.562,0.035,2.342-0.005c0.514-0.026,0.68,0.122,0.678,0.656c-0.023,3.687-0.014,7.372-0.012,11.058
		c0,0.233-0.004,0.477,0.043,0.703c0.172,0.813,0.881,1.351,1.694,1.311c0.783-0.04,1.443-0.695,1.519-1.518
		c0.018-0.199,0.012-0.399,0.012-0.6c0-3.649,0.01-7.298-0.012-10.947c-0.004-0.528,0.149-0.692,0.672-0.663
		c0.76,0.041,1.525,0.035,2.285,0.001c0.449-0.021,0.551,0.148,0.547,0.564C39.763,10.188,39.772,12.168,39.772,14.145z"/>
	<path fill="#0F346B" d="M71.362,14.081c0,1.851,0.004,3.703-0.002,5.556c-0.01,3.113-2.326,5.338-5.435,5.219
		c-2.602-0.099-4.76-2.262-4.788-4.92c-0.046-3.938-0.011-7.878-0.021-11.816c-0.002-0.358,0.121-0.479,0.473-0.47
		c0.816,0.019,1.636,0.03,2.451-0.004c0.465-0.02,0.578,0.148,0.574,0.59c-0.014,3.778-0.01,7.554-0.004,11.33
		c0,1.021,0.627,1.754,1.51,1.806c0.992,0.06,1.742-0.66,1.752-1.724c0.015-1.707,0.002-3.414,0.004-5.121
		c0-2.106,0.011-4.211-0.01-6.316c-0.002-0.42,0.105-0.583,0.549-0.564c0.797,0.033,1.601,0.03,2.396,0
		c0.43-0.016,0.562,0.12,0.557,0.555C71.351,10.159,71.362,12.12,71.362,14.081z"/>
	<path fill="#0F346B" d="M21.038,16.279c0,1.071-0.004,2.143,0.002,3.212c0.002,1.022,0.551,1.757,1.381,1.868
		c0.908,0.119,1.531-0.353,1.877-1.362c0.05-0.147,0.279-0.324,0.433-0.329c0.852-0.033,1.703-0.006,2.557-0.021
		c0.377-0.006,0.531,0.129,0.492,0.515c-0.318,3.17-3.107,5.231-6.1,4.594c-2.668-0.565-4.123-2.498-4.125-5.229
		c-0.002-2.287-0.043-4.573,0.012-6.858c0.051-2.104,1.045-3.705,2.983-4.549c2.041-0.889,3.984-0.581,5.654,0.938
		c0.93,0.846,1.4,1.958,1.568,3.204c0.057,0.428-0.033,0.639-0.529,0.617c-0.797-0.037-1.598-0.021-2.395-0.005
		c-0.336,0.008-0.507-0.064-0.603-0.438c-0.229-0.911-0.951-1.385-1.813-1.275c-0.785,0.101-1.379,0.804-1.392,1.694
		C21.028,13.994,21.04,15.138,21.038,16.279z"/>
	<path fill="#0F346B" d="M52.409,18.002c0-2.104-0.01-4.209,0.01-6.312c0.004-0.423-0.11-0.578-0.553-0.561
		c-0.795,0.033-1.596,0-2.391,0.014c-0.353,0.005-0.49-0.133-0.484-0.481c0.014-0.854,0.01-1.706,0.002-2.559
		c-0.004-0.325,0.133-0.451,0.455-0.45c3.137,0.004,6.275,0.004,9.414,0c0.324-0.001,0.453,0.136,0.451,0.457
		c-0.013,0.851-0.015,1.704,0,2.556c0.006,0.355-0.146,0.482-0.49,0.477c-0.777-0.013-1.559,0.026-2.338-0.013
		c-0.498-0.026-0.603,0.156-0.601,0.622c0.017,4.152,0,8.305,0.021,12.459c0,0.525-0.148,0.693-0.672,0.665
		c-0.758-0.044-1.521-0.036-2.283-0.003c-0.438,0.02-0.555-0.137-0.551-0.561C52.419,22.21,52.409,20.105,52.409,18.002z"/>
	<path fill="#0F346B" d="M41.517,16.26c0-2.668,0.012-5.335-0.011-8.002c-0.004-0.477,0.121-0.64,0.609-0.614
		c0.76,0.039,1.523,0.039,2.285,0c0.481-0.024,0.611,0.132,0.611,0.612c-0.021,4.101-0.013,8.2-0.011,12.303
		c0,0.903-0.086,0.816,0.816,0.819c1.234,0.004,2.467,0.015,3.701-0.007c0.436-0.008,0.627,0.115,0.606,0.581
		c-0.026,0.778-0.026,1.56,0,2.339c0.021,0.465-0.172,0.584-0.606,0.58c-2.486-0.016-4.974-0.016-7.459,0.001
		c-0.431,0.003-0.558-0.126-0.554-0.558C41.526,21.631,41.517,18.943,41.517,16.26z"/>
</g>
</svg>
