<?xml version="1.0" encoding="utf-8"?>
<!-- Generator: Adobe Illustrator 18.1.0, SVG Export Plug-In . SVG Version: 6.00 Build 0)  -->
<svg version="1.1" baseProfile="tiny" id="Layer_1" xmlns="http://www.w3.org/2000/svg" xmlns:xlink="http://www.w3.org/1999/xlink"
	 x="0px" y="0px" viewBox="0 231.374 841.89 132.533" xml:space="preserve">
<g id="Layer_2">
</g>
<g id="Isolation_Mode">
</g>
<g id="Isolation_Mode_1_">
</g>
<g id="Layer_1_1_">
	<g>
		<path fill="#FFFFFF" d="M14.397,237.07h36.238c5.177,0,9.977,0.918,14.409,2.761c4.424,1.835,8.259,4.4,11.475,7.679
			c3.224,3.279,5.749,7.13,7.601,11.562c1.835,4.432,2.761,9.232,2.761,14.409c0,4.722-0.777,9.114-2.33,13.201
			s-3.71,7.742-6.471,10.958c2.769,3.224,4.918,6.879,6.471,10.958c1.553,4.087,2.33,8.487,2.33,13.201
			c0,5.177-0.918,9.977-2.761,14.409s-4.377,8.283-7.601,11.562c-3.216,3.279-7.044,5.844-11.475,7.679
			c-4.424,1.843-9.232,2.761-14.409,2.761H14.397C14.397,358.209,14.397,237.07,14.397,237.07z M50.635,285.388
			c3.451,0,6.33-1.137,8.636-3.428c2.298-2.283,3.443-5.138,3.443-8.565s-1.145-6.283-3.443-8.565
			c-2.306-2.283-5.177-3.428-8.636-3.428H38.556v23.986L50.635,285.388L50.635,285.388z M50.635,333.878
			c3.451,0,6.33-1.145,8.636-3.451c2.298-2.298,3.443-5.177,3.443-8.628s-1.145-6.322-3.443-8.628
			c-2.306-2.298-5.177-3.451-8.636-3.451H38.556v24.159h12.079V333.878z"/>
		<path fill="#FFFFFF" d="M171.428,237.07v84.728c0,5.177-0.918,9.977-2.761,14.409c-1.835,4.432-4.4,8.283-7.679,11.562
			c-3.279,3.279-7.106,5.844-11.483,7.679c-4.377,1.843-9.146,2.761-14.315,2.761c-5.177,0-9.962-0.918-14.323-2.761
			c-4.377-1.835-8.197-4.4-11.475-7.679c-3.279-3.279-5.844-7.13-7.679-11.562c-1.835-4.424-2.761-9.232-2.761-14.409V237.07h24.159
			v84.728c0,3.451,1.145,6.33,3.443,8.628c2.298,2.298,5.177,3.451,8.636,3.451c3.443,0,6.322-1.145,8.628-3.451
			c2.298-2.298,3.451-5.177,3.451-8.628V237.07H171.428z"/>
		<path fill="#FFFFFF" d="M207.666,297.64l-24.158-60.57h24.159l12.079,30.371l12.079-30.371h24.159l-24.159,60.569v60.569h-24.159
			V297.64L207.666,297.64z"/>
		<path fill="#FFFFFF" d="M296.01,237.07h72.476v24.331h-24.151v96.807h-24.159v-96.807h-24.159V237.07H296.01z"/>
		<path fill="#FFFFFF" d="M404.724,358.209h-24.159V237.07h24.159V358.209z"/>
		<path fill="#FFFFFF" d="M489.279,321.798c0,5.177-0.918,9.977-2.761,14.409s-4.408,8.283-7.679,11.562
			c-3.279,3.279-7.099,5.844-11.475,7.679c-4.377,1.843-9.146,2.761-14.323,2.761c-5.169,0-9.954-0.918-14.315-2.761
			c-4.377-1.835-8.205-4.4-11.483-7.679c-3.279-3.279-5.836-7.13-7.679-11.562c-1.835-4.424-2.769-9.232-2.769-14.409v-48.317
			c0-5.177,0.926-9.977,2.769-14.409c1.835-4.424,4.4-8.283,7.679-11.562s7.106-5.844,11.483-7.679
			c4.369-1.843,9.146-2.761,14.315-2.761c5.177,0,9.954,0.918,14.323,2.761c4.377,1.835,8.197,4.4,11.475,7.679
			c3.279,3.279,5.836,7.13,7.679,11.562c1.835,4.432,2.761,9.232,2.761,14.409H465.12c0-3.451-1.145-6.33-3.443-8.628
			c-2.306-2.298-5.177-3.451-8.636-3.451c-3.443,0-6.33,1.145-8.628,3.451c-2.306,2.298-3.451,5.177-3.451,8.628v48.317
			c0,3.451,1.145,6.33,3.451,8.628c2.298,2.298,5.177,3.451,8.628,3.451s6.33-1.145,8.636-3.451
			c2.298-2.298,3.443-5.177,3.443-8.628C465.121,321.798,489.279,321.798,489.279,321.798z"/>
		<path fill="#FFFFFF" d="M525.517,297.64l24.159-60.57h24.159l-24.159,60.57l24.159,60.569h-24.159L525.517,297.64v60.569h-24.159
			V237.07h24.159V297.64z"/>
		<path fill="#FFFFFF" d="M585.906,237.07h72.476v24.331h-48.317v23.986h36.238v24.331h-36.238v24.159h48.317v24.331h-72.476V237.07
			L585.906,237.07z"/>
		<path fill="#FFFFFF" d="M670.461,237.07h72.476v24.331h-24.159v96.807h-24.159v-96.807H670.46L670.461,237.07L670.461,237.07z"/>
		<path fill="#FFFFFF" d="M791.247,261.402c-3.443,0-6.33,1.145-8.628,3.428c-2.306,2.29-3.451,5.145-3.451,8.565
			c0,3.428,1.145,6.283,3.451,8.565c2.298,2.29,5.177,3.428,8.628,3.428c5.177,0,9.977,0.926,14.409,2.769
			c4.424,1.843,8.259,4.408,11.483,7.695c3.216,3.287,5.742,7.122,7.593,11.507c1.835,4.385,2.761,9.161,2.761,14.354
			s-0.918,10.001-2.761,14.44c-1.843,4.44-4.377,8.307-7.593,11.593c-3.224,3.287-7.052,5.851-11.483,7.695
			c-4.424,1.843-9.232,2.769-14.409,2.769c-5.169,0-9.954-0.918-14.315-2.761c-4.377-1.835-8.205-4.4-11.483-7.679
			c-3.279-3.279-5.836-7.13-7.679-11.562c-1.835-4.424-2.769-9.232-2.769-14.409h24.159c0,3.451,1.145,6.33,3.451,8.628
			c2.298,2.298,5.177,3.451,8.628,3.451s6.33-1.145,8.636-3.451c2.298-2.298,3.443-5.177,3.443-8.628s-1.145-6.322-3.443-8.628
			c-2.306-2.298-5.177-3.451-8.636-3.451c-5.169,0-9.977-0.918-14.409-2.761c-4.424-1.835-8.259-4.4-11.475-7.679
			s-5.742-7.099-7.577-11.475c-1.835-4.369-2.769-9.146-2.769-14.323s0.926-9.977,2.769-14.409
			c1.835-4.424,4.377-8.283,7.593-11.562c3.216-3.279,7.044-5.844,11.475-7.679c4.424-1.843,9.24-2.761,14.409-2.761
			c5.177,0,9.954,0.918,14.323,2.761c4.377,1.835,8.197,4.4,11.475,7.679c3.279,3.279,5.836,7.13,7.679,11.562
			c1.835,4.432,2.761,9.232,2.761,14.409h-24.159c0-3.451-1.145-6.33-3.443-8.628C797.577,262.555,794.706,261.402,791.247,261.402z
			"/>
	</g>
</g>
<g id="Isolation_Mode_2_">
</g>
</svg>
