<?xml version="1.0" encoding="utf-8"?>
<!-- Generator: Adobe Illustrator 16.0.0, SVG Export Plug-In . SVG Version: 6.00 Build 0)  -->
<!DOCTYPE svg PUBLIC "-//W3C//DTD SVG 1.1//EN" "http://www.w3.org/Graphics/SVG/1.1/DTD/svg11.dtd">
<svg version="1.1" id="Layer_1" xmlns="http://www.w3.org/2000/svg" xmlns:xlink="http://www.w3.org/1999/xlink" x="0px" y="0px"
	 width="117.945px" height="32.5px" viewBox="0 0 117.945 32.5" enable-background="new 0 0 117.945 32.5" xml:space="preserve">
<g>
	<path fill-rule="evenodd" clip-rule="evenodd" fill="#FFFFFF" d="M36.58,15.758c0.15-0.681,0.314-1.359,0.449-2.044
		c0.385-1.915,0.766-3.833,1.127-5.754c0.064-0.353,0.26-0.387,0.537-0.387c1.41,0.003,2.818,0.018,4.229-0.008
		c0.434-0.008,0.514,0.165,0.512,0.551c-0.012,3.276-0.006,6.553-0.006,9.828c0,2.142-0.01,4.284,0.008,6.425
		c0.004,0.426-0.111,0.584-0.555,0.565c-0.803-0.033-1.611-0.03-2.416,0c-0.436,0.017-0.564-0.126-0.561-0.56
		c0.02-2.196,0.012-4.394,0.012-6.589v-0.629c-0.055-0.006-0.107-0.011-0.16-0.016c-0.166,0.786-0.338,1.57-0.492,2.358
		c-0.318,1.632-0.629,3.264-0.934,4.898c-0.072,0.385-0.244,0.555-0.666,0.536c-0.766-0.033-1.537-0.03-2.305,0
		c-0.41,0.017-0.6-0.134-0.672-0.527c-0.23-1.239-0.473-2.477-0.713-3.714c-0.229-1.182-0.465-2.36-0.82-3.55
		c-0.018,0.193-0.049,0.386-0.049,0.581c-0.002,2.214-0.01,4.428,0.006,6.643c0.002,0.423-0.104,0.587-0.551,0.567
		c-0.787-0.033-1.578-0.035-2.361,0.001c-0.484,0.023-0.621-0.127-0.621-0.613c0.021-3.972,0.012-7.944,0.012-11.915
		c0-1.447,0.01-2.893-0.008-4.338c-0.004-0.387,0.125-0.507,0.506-0.503c1.408,0.02,2.818,0.017,4.229,0.003
		c0.363-0.004,0.492,0.13,0.562,0.491c0.48,2.473,0.99,4.939,1.494,7.408c0.021,0.098,0.062,0.192,0.092,0.286
		C36.504,15.755,36.541,15.758,36.58,15.758"/>
	<path fill-rule="evenodd" clip-rule="evenodd" fill="#FFFFFF" d="M52.199,15.747c0.301-1.502,0.602-3.003,0.902-4.502
		c0.221-1.111,0.432-2.226,0.68-3.332c0.029-0.134,0.254-0.318,0.395-0.322c1.5-0.023,3.002-0.021,4.502,0.002
		c0.115,0.002,0.246,0.221,0.336,0.36c0.043,0.062,0.01,0.178,0.01,0.269c0,5.344-0.008,10.688,0.01,16.033
		c0.004,0.515-0.119,0.714-0.662,0.683c-0.766-0.045-1.539-0.033-2.305-0.003c-0.428,0.016-0.57-0.113-0.566-0.556
		c0.02-2.195,0.01-4.394,0.01-6.59v-0.632c-0.055-0.006-0.109-0.012-0.164-0.018c-0.166,0.822-0.338,1.643-0.5,2.464
		c-0.314,1.614-0.627,3.228-0.934,4.844c-0.062,0.336-0.215,0.498-0.59,0.486c-0.807-0.025-1.613-0.029-2.418,0.001
		c-0.404,0.016-0.553-0.174-0.619-0.523c-0.234-1.238-0.473-2.477-0.715-3.714c-0.23-1.181-0.463-2.36-0.818-3.552
		c-0.016,0.191-0.051,0.383-0.051,0.573c-0.004,2.197-0.014,4.394,0.008,6.589c0.004,0.469-0.102,0.657-0.605,0.629
		c-0.766-0.041-1.539-0.037-2.305-0.001c-0.477,0.023-0.627-0.114-0.625-0.609c0.021-3.606,0.012-7.211,0.012-10.816
		c0-1.794,0.012-3.589-0.008-5.382c-0.006-0.43,0.117-0.57,0.557-0.564c1.373,0.027,2.746,0.022,4.117,0.004
		c0.406-0.005,0.555,0.128,0.633,0.543c0.475,2.474,0.988,4.94,1.492,7.409c0.016,0.079,0.055,0.155,0.082,0.233
		C52.105,15.75,52.154,15.749,52.199,15.747"/>
	<path fill-rule="evenodd" clip-rule="evenodd" fill="#FFFFFF" d="M76.377,16.772v0.574c0,2.341-0.01,4.684,0.008,7.025
		c0.006,0.43-0.115,0.581-0.557,0.562c-0.785-0.032-1.574-0.037-2.359,0.001c-0.49,0.025-0.617-0.137-0.615-0.618
		c0.018-4.316,0.01-8.637,0.01-12.953c0-1.099,0.014-2.196-0.006-3.295c-0.008-0.384,0.119-0.512,0.502-0.503
		c0.842,0.024,1.684,0.028,2.525-0.001c0.412-0.016,0.566,0.17,0.699,0.524c0.938,2.494,1.893,4.979,2.842,7.467
		c0.025,0.065,0.061,0.126,0.213,0.19c0.012-0.197,0.033-0.396,0.033-0.594c0.002-2.322,0.014-4.646-0.01-6.969
		c-0.004-0.482,0.125-0.646,0.615-0.621c0.766,0.039,1.537,0.039,2.303,0c0.49-0.024,0.617,0.137,0.617,0.618
		c-0.02,4.318-0.012,8.636-0.012,12.954c0,1.099-0.014,2.196,0.008,3.295c0.008,0.384-0.121,0.513-0.504,0.503
		c-0.842-0.022-1.684-0.029-2.525,0.001c-0.414,0.016-0.566-0.17-0.699-0.523c-0.936-2.494-1.893-4.981-2.842-7.469
		c-0.025-0.065-0.061-0.126-0.092-0.189L76.377,16.772z"/>
	<path fill-rule="evenodd" clip-rule="evenodd" fill="#FFFFFF" d="M27.832,16.284c0,1.152,0.006,2.305-0.002,3.459
		c-0.016,2.389-1.576,4.407-3.715,4.991c-2.375,0.647-5-0.393-6.023-2.603c-0.328-0.71-0.533-1.535-0.557-2.314
		c-0.07-2.378-0.039-4.759-0.021-7.138c0.021-2.586,1.828-4.652,4.379-5.052c2.471-0.388,4.848,1.027,5.658,3.417
		c0.186,0.544,0.248,1.146,0.268,1.726C27.859,13.94,27.832,15.112,27.832,16.284 M24.318,16.25c0-1.117,0.006-2.233-0.002-3.349
		c-0.01-1.07-0.689-1.808-1.646-1.808c-0.957,0.001-1.641,0.739-1.645,1.81c-0.008,2.231-0.008,4.463,0,6.695
		c0.004,1.07,0.689,1.807,1.645,1.807c0.957,0,1.639-0.737,1.646-1.808C24.324,18.481,24.318,17.366,24.318,16.25"/>
	<path fill-rule="evenodd" clip-rule="evenodd" fill="#FFFFFF" d="M60.781,14.054c0-1.977,0.012-3.954-0.008-5.931
		c-0.006-0.44,0.131-0.573,0.562-0.558c0.803,0.029,1.611,0.033,2.416-0.002c0.451-0.018,0.551,0.15,0.551,0.57
		c-0.014,3.771-0.018,7.542,0.006,11.312c0.002,0.419,0.113,0.881,0.316,1.244c0.334,0.601,1.068,0.842,1.715,0.681
		c0.637-0.157,1.164-0.774,1.236-1.46c0.021-0.2,0.014-0.403,0.014-0.604c0.002-3.698,0.01-7.396-0.01-11.094
		c-0.002-0.493,0.119-0.679,0.639-0.651c0.803,0.043,1.611,0.024,2.416,0.007c0.357-0.01,0.477,0.113,0.477,0.474
		c-0.012,3.972,0.025,7.944-0.02,11.915c-0.033,2.809-2.338,4.974-5.166,4.968c-2.824-0.007-5.084-2.181-5.137-4.997
		C60.754,17.971,60.783,16.012,60.781,14.054"/>
	<path fill-rule="evenodd" clip-rule="evenodd" fill="#FFFFFF" d="M5.428,16.235c0-1.172-0.008-2.341,0.002-3.512
		c0.023-2.582,1.734-4.607,4.281-5.079c2.43-0.45,4.846,0.923,5.711,3.312c0.199,0.548,0.189,1.172,0.275,1.76
		c-0.5,0.038-0.998,0.092-1.5,0.108c-0.512,0.021-1.027,0.032-1.535-0.012c-0.158-0.014-0.385-0.186-0.434-0.335
		c-0.348-1.016-0.98-1.493-1.895-1.369c-0.836,0.112-1.389,0.854-1.391,1.885c-0.004,2.231-0.016,4.464,0.006,6.695
		c0.014,1.355,1.357,2.182,2.445,1.481c0.35-0.227,0.607-0.672,0.775-1.07c0.127-0.304,0.227-0.443,0.562-0.435
		c0.84,0.019,1.682,0.018,2.523,0.001c0.395-0.007,0.52,0.158,0.48,0.531c-0.332,3.246-3.221,5.283-6.215,4.604
		c-2.629-0.596-4.09-2.532-4.094-5.219C5.426,18.468,5.428,17.351,5.428,16.235"/>
	<path fill-rule="evenodd" clip-rule="evenodd" fill="#FFFFFF" d="M97.023,18.007c0,2.123-0.012,4.243,0.01,6.365
		c0.002,0.429-0.115,0.581-0.557,0.562c-0.785-0.032-1.574-0.037-2.359,0.001c-0.482,0.023-0.619-0.13-0.617-0.615
		c0.018-4.132,0.012-8.265,0.01-12.396c0-0.919,0.088-0.832-0.814-0.836c-0.715-0.004-1.428-0.01-2.141,0.004
		c-0.348,0.006-0.496-0.124-0.492-0.482c0.014-0.858,0.014-1.719,0.004-2.577c-0.004-0.325,0.125-0.462,0.455-0.459
		c3.162,0.004,6.326,0.004,9.49,0c0.322-0.003,0.459,0.127,0.459,0.455c-0.01,0.857-0.012,1.719,0,2.578
		c0.006,0.354-0.137,0.489-0.488,0.485c-0.803-0.014-1.607,0.02-2.412-0.013c-0.445-0.019-0.559,0.141-0.555,0.564
		C97.033,13.766,97.023,15.888,97.023,18.007"/>
	<path fill-rule="evenodd" clip-rule="evenodd" fill="#FFFFFF" d="M102.24,7.583c1.084,0,2.119-0.018,3.152,0.02
		c0.139,0.008,0.316,0.274,0.393,0.455c0.451,1.076,0.879,2.163,1.32,3.243c0.045,0.108,0.119,0.208,0.242,0.418
		c0.152-0.277,0.277-0.462,0.359-0.664c0.41-1.015,0.803-2.038,1.221-3.048c0.068-0.165,0.244-0.401,0.375-0.405
		c1.035-0.032,2.07-0.019,3.219-0.019c-0.307,0.797-0.562,1.49-0.832,2.177c-0.822,2.069-1.656,4.133-2.469,6.207
		c-0.09,0.229-0.109,0.497-0.111,0.747c-0.008,2.543-0.014,5.087,0.006,7.631c0.002,0.451-0.125,0.609-0.586,0.59
		c-0.805-0.033-1.611-0.028-2.414,0c-0.412,0.013-0.535-0.128-0.531-0.534c0.018-2.123-0.049-4.247,0.029-6.368
		c0.047-1.283-0.24-2.44-0.721-3.601c-0.881-2.123-1.715-4.265-2.562-6.4C102.285,7.918,102.281,7.79,102.24,7.583"/>
	<path fill-rule="evenodd" clip-rule="evenodd" fill="#FFFFFF" d="M88.457,16.308c0,2.672-0.012,5.343,0.012,8.013
		c0.004,0.486-0.135,0.639-0.619,0.615c-0.768-0.038-1.537-0.039-2.305,0.001c-0.494,0.026-0.613-0.146-0.611-0.621
		c0.016-4.61,0.01-9.222,0.01-13.831c0-0.823,0.012-1.647-0.004-2.47c-0.006-0.336,0.117-0.452,0.447-0.445
		c0.842,0.017,1.686,0.028,2.523-0.006c0.445-0.016,0.559,0.143,0.555,0.568C88.449,10.856,88.457,13.582,88.457,16.308"/>
</g>
</svg>
