<?xml version="1.0" encoding="utf-8"?>
<!-- Generator: Adobe Illustrator 18.1.0, SVG Export Plug-In . SVG Version: 6.00 Build 0)  -->
<svg version="1.1" id="Layer_1" xmlns="http://www.w3.org/2000/svg" xmlns:xlink="http://www.w3.org/1999/xlink" x="0px" y="0px"
	 viewBox="0 -45.758 2607.87 453.742" enable-background="new 0 -45.758 2607.87 453.742" xml:space="preserve">
<g id="Layer_2">
</g>
<g id="Isolation_Mode">
</g>
<g>
	<path fill="#1F376A" d="M240.604,262.122c0,16.016-2.853,30.88-8.542,44.576c-5.697,13.705-13.613,25.625-23.756,35.769
		c-10.144,10.143-21.98,18.067-35.501,23.756c-13.53,5.697-28.294,8.542-44.31,8.542s-30.789-2.845-44.31-8.542
		c-13.53-5.688-25.358-13.613-35.501-23.756c-10.143-10.144-18.067-22.063-23.756-35.769c-5.697-13.696-8.542-28.561-8.542-44.576
		V112.643c0-16.016,2.844-30.872,8.542-44.577c5.689-13.697,13.613-25.625,23.756-35.768s21.971-18.06,35.501-23.756
		C97.707,2.853,112.48,0,128.495,0s30.78,2.853,44.31,8.542c13.521,5.697,25.358,13.613,35.501,23.756
		c10.143,10.143,18.059,22.071,23.756,35.768c5.689,13.705,8.542,28.561,8.542,44.577h-74.739c0-10.677-3.562-19.569-10.677-26.693
		c-7.124-7.115-16.016-10.677-26.692-10.677c-10.677,0-19.578,3.562-26.693,10.677c-7.124,7.124-10.677,16.016-10.677,26.693
		v149.479c0,10.677,3.553,19.577,10.677,26.692c7.115,7.123,16.016,10.677,26.693,10.677c10.677,0,19.569-3.554,26.692-10.677
		c7.115-7.115,10.677-16.016,10.677-26.692H240.604z"/>
	<path fill="#1F376A" d="M277.969,112.643c0-16.016,2.844-30.872,8.542-44.577c5.689-13.697,13.613-25.625,23.756-35.768
		s21.971-18.06,35.501-23.756C359.289,2.853,374.062,0,390.078,0s30.78,2.853,44.31,8.542c13.521,5.697,25.358,13.613,35.501,23.756
		c10.143,10.143,18.059,22.071,23.756,35.768c5.689,13.705,8.542,28.561,8.542,44.577v149.479c0,16.016-2.853,30.88-8.542,44.576
		c-5.697,13.705-13.613,25.625-23.756,35.769c-10.144,10.143-21.98,18.067-35.501,23.756c-13.53,5.697-28.294,8.542-44.31,8.542
		s-30.789-2.845-44.31-8.542c-13.53-5.688-25.358-13.613-35.501-23.756c-10.143-10.144-18.067-22.063-23.756-35.769
		c-5.697-13.696-8.542-28.561-8.542-44.576V112.643z M352.708,262.122c0,10.677,3.553,19.577,10.677,26.692
		c7.115,7.123,16.016,10.677,26.693,10.677c10.677,0,19.569-3.554,26.692-10.677c7.115-7.115,10.677-16.016,10.677-26.692V112.643
		c0-10.677-3.562-19.569-10.677-26.693c-7.124-7.115-16.016-10.677-26.692-10.677c-10.677,0-19.578,3.562-26.693,10.677
		c-7.124,7.124-10.677,16.016-10.677,26.693V262.122z"/>
	<path fill="#1F376A" d="M689.03,187.383L726.4,0h112.109v374.765h-74.739V187.383L726.4,374.765H651.66l-37.37-187.382v187.382
		h-74.739V0H651.66L689.03,187.383z"/>
	<path fill="#1F376A" d="M1025.352,187.383L1062.721,0h112.109v374.765h-74.739V187.383l-37.37,187.382h-74.739l-37.37-187.382
		v187.382h-74.739V0h112.109L1025.352,187.383z"/>
	<path fill="#1F376A" d="M1436.413,0v262.122c0,16.016-2.854,30.88-8.542,44.576c-5.697,13.705-13.613,25.625-23.757,35.769
		c-10.143,10.143-21.979,18.067-35.501,23.756c-13.529,5.697-28.294,8.542-44.31,8.542s-30.788-2.845-44.31-8.542
		c-13.53-5.688-25.358-13.613-35.501-23.756c-10.143-10.144-18.067-22.063-23.756-35.769c-5.697-13.696-8.542-28.561-8.542-44.576V0
		h74.739v262.122c0,10.677,3.554,19.577,10.678,26.692c7.115,7.123,16.016,10.677,26.692,10.677s19.569-3.554,26.692-10.677
		c7.115-7.115,10.677-16.016,10.677-26.692V0H1436.413z"/>
	<path fill="#1F376A" d="M1548.516,187.383v187.382h-74.739V0h74.739l74.739,187.383V0h74.74v374.765h-74.74L1548.516,187.383z"/>
	<path fill="#1F376A" d="M1810.099,374.765h-74.739V0h74.739V374.765z"/>
	<path fill="#1F376A" d="M1847.464,0h224.219v75.273h-74.74v299.491h-74.739V75.273h-74.739V0z"/>
	<path fill="#1F376A" d="M2183.785,187.383L2109.046,0h74.739l37.37,93.958L2258.525,0h74.74l-74.74,187.383v187.382h-74.739
		V187.383z"/>
</g>
</svg>
