<?xml version="1.0" encoding="utf-8"?>
<!-- Generator: Adobe Illustrator 16.0.0, SVG Export Plug-In . SVG Version: 6.00 Build 0)  -->
<!DOCTYPE svg PUBLIC "-//W3C//DTD SVG 1.1//EN" "http://www.w3.org/Graphics/SVG/1.1/DTD/svg11.dtd">
<svg version="1.1" id="Layer_1" xmlns="http://www.w3.org/2000/svg" xmlns:xlink="http://www.w3.org/1999/xlink" x="0px" y="0px"
	 width="197.99px" height="61.483px" viewBox="0 0 197.99 61.483" enable-background="new 0 0 197.99 61.483" xml:space="preserve">
<g>
	<g>
		<g>
			<g>
				<g>
					<path fill-rule="evenodd" clip-rule="evenodd" fill="#0F346B" d="M31.617,22.311c0,1.045-0.004,2.059,0.002,3.07
						c0.004,0.389-0.275,0.314-0.498,0.314c-1.928,0.004-3.857,0.002-5.785,0.002c-0.695,0.002-0.697,0.004-0.697,0.695
						c-0.002,0.811,0.02,1.623-0.008,2.438c-0.016,0.432,0.15,0.549,0.559,0.541c1.389-0.016,2.775,0.008,4.162-0.012
						c0.4-0.006,0.523,0.107,0.504,0.518c-0.035,0.828-0.031,1.658-0.002,2.486c0.014,0.359-0.094,0.467-0.449,0.465
						c-1.404-0.018-2.809,0.002-4.213-0.014c-0.404-0.006-0.58,0.102-0.561,0.539c0.029,0.777,0.037,1.559-0.004,2.334
						c-0.025,0.498,0.182,0.592,0.621,0.588c1.93-0.016,3.859,0.008,5.787-0.016c0.467-0.006,0.615,0.123,0.592,0.596
						c-0.039,0.811-0.023,1.625-0.004,2.436c0.008,0.334-0.107,0.439-0.439,0.438c-3.197-0.01-6.393-0.01-9.59,0
						c-0.344,0.002-0.428-0.125-0.428-0.445c0.008-5.533,0.008-11.066,0.002-16.598c0-0.279,0.049-0.439,0.383-0.438
						c3.266,0.008,6.531,0.004,9.799,0.008C31.412,22.256,31.48,22.281,31.617,22.311z"/>
				</g>
				<g>
					<path fill-rule="evenodd" clip-rule="evenodd" fill="#0F346B" d="M43.818,27.447c-1.078,0-2.109,0.01-3.137-0.012
						c-0.104-0.002-0.264-0.178-0.297-0.297c-0.277-1.033-1.043-1.568-2.068-1.424c-0.816,0.115-1.428,0.992-1.381,1.977
						c0.043,0.939,0.773,1.631,1.764,1.676c2.27,0.1,3.959,1.096,4.795,3.262c1.02,2.645-0.131,5.869-3.143,6.82
						c-3.277,1.037-6.463-0.955-6.863-4.467c-0.039-0.338,0.02-0.498,0.41-0.486c0.879,0.025,1.76,0.02,2.641,0.002
						c0.273-0.004,0.369,0.076,0.426,0.352c0.199,0.98,1.027,1.537,2.027,1.4c0.855-0.115,1.445-0.91,1.393-1.883
						c-0.045-0.844-0.805-1.51-1.764-1.547c-3.078-0.111-5.24-2.34-5.143-5.422c0.109-3.48,2.99-5.617,6.182-5.043
						c2.375,0.428,3.947,2.342,4.18,4.713C43.852,27.166,43.83,27.268,43.818,27.447z"/>
				</g>
				<g>
					<path fill-rule="evenodd" clip-rule="evenodd" fill="#0F346B" d="M83.387,39.717c-1.08,0-2.123,0.008-3.162-0.012
						c-0.092-0.004-0.236-0.176-0.26-0.289c-0.172-0.844-0.33-1.689-0.48-2.537c-0.119-0.678-0.154-0.715-0.842-0.717
						c-0.305-0.002-0.613,0.027-0.914-0.008c-0.49-0.053-0.695,0.15-0.768,0.631c-0.129,0.867-0.303,1.727-0.488,2.584
						c-0.029,0.135-0.213,0.332-0.328,0.336c-1.012,0.025-2.025,0.016-3.1,0.016c0.166-0.85,0.32-1.652,0.479-2.455
						c0.434-2.199,0.863-4.4,1.305-6.6c0.326-1.621,0.668-3.238,0.996-4.859c0.191-0.959,0.391-1.918,0.543-2.883
						c0.072-0.471,0.207-0.721,0.758-0.688c0.791,0.051,1.59,0.021,2.383,0.01c0.285-0.004,0.432,0.09,0.486,0.383
						c0.166,0.895,0.355,1.787,0.531,2.68c0.414,2.084,0.826,4.17,1.238,6.256c0.34,1.719,0.678,3.439,1.02,5.162
						C82.975,37.699,83.176,38.672,83.387,39.717z M78.314,31.148c-0.062,0-0.125,0-0.188,0c-0.092,0.42-0.207,0.838-0.258,1.264
						c-0.008,0.08,0.232,0.27,0.355,0.268c0.123,0,0.359-0.191,0.348-0.275C78.521,31.982,78.406,31.568,78.314,31.148z"/>
				</g>
				<g>
					<path fill-rule="evenodd" clip-rule="evenodd" fill="#0F346B" d="M63.492,22.258c1.025,0,2.07-0.01,3.113,0.02
						c0.098,0.002,0.24,0.242,0.27,0.391c0.525,2.564,1.035,5.129,1.549,7.693c0.029,0.135,0.09,0.264,0.135,0.393
						c0.047-0.002,0.094-0.002,0.139-0.006c0.035-0.148,0.074-0.299,0.105-0.449c0.494-2.432,0.99-4.861,1.482-7.291
						c0.033-0.166,0.018-0.346,0.076-0.5c0.035-0.102,0.16-0.238,0.246-0.24c1.043-0.018,2.086-0.012,3.172-0.012
						c-0.34,1.66-0.668,3.242-0.982,4.828c-0.326,1.621-0.635,3.244-0.957,4.865c-0.352,1.752-0.713,3.502-1.064,5.252
						c-0.145,0.713-0.277,1.426-0.4,2.141c-0.051,0.287-0.191,0.393-0.482,0.387c-0.848-0.016-1.693-0.02-2.537,0.002
						c-0.367,0.008-0.494-0.145-0.561-0.486c-0.545-2.834-1.102-5.664-1.664-8.496c-0.553-2.777-1.117-5.555-1.674-8.33
						C63.451,22.387,63.471,22.352,63.492,22.258z"/>
				</g>
				<g>
					<path fill-rule="evenodd" clip-rule="evenodd" fill="#0F346B" d="M12.342,39.721c-1.102,0-2.131,0.01-3.16-0.014
						c-0.104-0.002-0.232-0.172-0.291-0.293c-0.051-0.094-0.014-0.232-0.014-0.352c0-5.379,0-10.756,0.002-16.137
						c0-0.674,0.002-0.676,0.697-0.676c3.045,0,6.09,0,9.133,0c0.184,0,0.365,0,0.613,0c0,1.104,0.012,2.148-0.021,3.189
						c-0.004,0.092-0.314,0.244-0.482,0.246c-1.928,0.018-3.855,0.012-5.785,0.012c-0.688,0.002-0.688,0.004-0.688,0.703
						c-0.004,0.76-0.004,1.521,0,2.283c0,0.68,0,0.682,0.658,0.684c1.336,0,2.672,0.02,4.01-0.012
						c0.463-0.01,0.57,0.135,0.549,0.576c-0.037,0.809-0.031,1.623,0,2.434c0.014,0.369-0.102,0.465-0.455,0.463
						c-1.369-0.018-2.74,0.012-4.109-0.018c-0.5-0.012-0.676,0.115-0.666,0.646c0.031,1.893,0.01,3.789,0.01,5.684
						C12.342,39.307,12.342,39.473,12.342,39.721z"/>
				</g>
				<g>
					<path fill-rule="evenodd" clip-rule="evenodd" fill="#0F346B" d="M45.648,22.289c3.496,0,6.924,0,10.375,0
						c0,1.131,0,2.225,0,3.408c-0.523,0-1.043,0-1.559,0c-0.441,0-0.881,0.025-1.32-0.006c-0.451-0.035-0.576,0.137-0.574,0.58
						c0.016,3.164,0.008,6.328,0.008,9.494c0,1.168-0.016,2.338,0.008,3.504c0.006,0.359-0.107,0.467-0.463,0.461
						c-0.979-0.021-1.955-0.008-3.012-0.008c0-0.25,0-0.445,0-0.643c0-4.246-0.008-8.496,0.014-12.742
						c0.002-0.525-0.158-0.676-0.666-0.65c-0.793,0.039-1.59,0-2.383,0.016c-0.32,0.004-0.447-0.074-0.438-0.43
						C45.67,24.297,45.648,23.316,45.648,22.289z"/>
				</g>
				<g>
					<path fill-rule="evenodd" clip-rule="evenodd" fill="#0F346B" d="M85.338,39.652c0-5.779,0-11.541,0-17.402
						c0.408,0,0.807,0,1.203,0c0.574,0,1.15,0.023,1.723-0.008c0.418-0.021,0.547,0.104,0.543,0.533
						c-0.016,4.246-0.01,8.492-0.01,12.736c0,0.754,0,0.756,0.74,0.756c1.316,0.002,2.637,0.014,3.957-0.006
						c0.395-0.006,0.537,0.105,0.521,0.518c-0.031,0.844-0.016,1.689-0.008,2.537c0.004,0.262-0.051,0.408-0.357,0.408
						c-2.723-0.008-5.445-0.008-8.166-0.012C85.451,39.713,85.42,39.689,85.338,39.652z"/>
				</g>
				<g>
					<path fill-rule="evenodd" clip-rule="evenodd" fill="#0F346B" d="M58.055,22.252c1.119,0,2.15-0.008,3.18,0.016
						c0.096,0.002,0.217,0.186,0.273,0.311c0.047,0.098,0.012,0.232,0.012,0.352c0,5.381,0,10.764,0,16.146
						c0,0.645-0.002,0.646-0.67,0.646c-0.725,0-1.455-0.029-2.182,0.012c-0.479,0.025-0.625-0.111-0.623-0.611
						c0.018-5.061,0.01-10.119,0.01-15.182C58.055,23.404,58.055,22.867,58.055,22.252z"/>
				</g>
			</g>
			<g>
				<g>
					<path fill-rule="evenodd" clip-rule="evenodd" fill="#0F346B" d="M170.52,31.234c-0.027,0.189-0.074,0.377-0.074,0.562
						c0,2.473-0.004,4.943,0.018,7.414c0.004,0.395-0.092,0.533-0.504,0.52c-0.965-0.029-1.928-0.008-2.932-0.008
						c0-5.814,0-11.592,0-17.432c0.145-0.012,0.305-0.039,0.465-0.039c0.828-0.004,1.66,0.018,2.488-0.01
						c0.373-0.014,0.537,0.121,0.66,0.459c0.984,2.658,1.986,5.309,2.986,7.959c0.012,0.029,0.049,0.043,0.189,0.156
						c0.031-0.295,0.078-0.518,0.078-0.742c0.004-2.453,0-4.906,0.002-7.361c0-0.131,0.016-0.264,0.029-0.457
						c1.084,0,2.146-0.006,3.205,0.012c0.08,0,0.18,0.154,0.227,0.256c0.035,0.086,0.008,0.201,0.008,0.303c0,5.449,0,10.9,0,16.352
						c0,0.162,0,0.326,0,0.545c-1.131,0-2.193,0.012-3.256-0.018c-0.123,0-0.295-0.205-0.35-0.352
						c-0.643-1.668-1.262-3.346-1.893-5.018c-0.393-1.037-0.805-2.066-1.209-3.102C170.611,31.234,170.564,31.234,170.52,31.234z"/>
				</g>
				<g>
					<path fill-rule="evenodd" clip-rule="evenodd" fill="#0F346B" d="M179.275,39.678c0-5.799,0-11.574,0-17.396
						c0.203-0.012,0.385-0.031,0.562-0.031c3.082,0,6.158,0.008,9.238-0.008c0.447-0.004,0.629,0.088,0.602,0.586
						c-0.045,0.791-0.031,1.59-0.004,2.385c0.012,0.377-0.105,0.494-0.488,0.49c-1.961-0.016-3.924,0.006-5.887-0.016
						c-0.467-0.004-0.623,0.135-0.604,0.607c0.037,0.828,0.037,1.658,0,2.484c-0.023,0.492,0.172,0.602,0.617,0.596
						c1.371-0.023,2.74,0.004,4.111-0.016c0.373-0.006,0.496,0.096,0.484,0.484c-0.031,0.961-0.01,1.924-0.01,2.945
						c-0.205,0.01-0.383,0.029-0.562,0.029c-1.371,0.002-2.738,0.012-4.109-0.004c-0.396-0.006-0.541,0.123-0.527,0.523
						c0.023,0.795,0.025,1.594-0.002,2.387c-0.014,0.426,0.141,0.555,0.555,0.551c1.945-0.016,3.891,0.008,5.836-0.018
						c0.473-0.006,0.611,0.137,0.588,0.602c-0.035,0.811-0.016,1.623-0.006,2.436c0.006,0.287-0.051,0.436-0.383,0.434
						c-3.25-0.01-6.496-0.006-9.746-0.008C179.463,39.721,179.381,39.695,179.275,39.678z"/>
				</g>
				<g>
					<path fill-rule="evenodd" clip-rule="evenodd" fill="#0F346B" d="M154.734,30.986c0-1.152-0.004-2.301,0-3.453
						c0.01-3.623,3.252-6.092,6.73-5.051c2.221,0.664,3.549,2.453,3.619,4.85c0.074,2.434,0.07,4.873,0.002,7.307
						c-0.064,2.375-1.557,4.4-4.074,4.945c-3.047,0.662-6.186-1.432-6.273-4.996C154.709,33.389,154.734,32.186,154.734,30.986z
						 M158.193,30.939c0,1.184-0.01,2.369,0.002,3.553c0.01,1.018,0.734,1.766,1.691,1.773c0.996,0.008,1.746-0.725,1.752-1.768
						c0.012-2.334,0.01-4.668,0-7.002c-0.004-1.059-0.73-1.795-1.719-1.795c-1,0-1.715,0.73-1.725,1.787
						C158.186,28.637,158.193,29.789,158.193,30.939z"/>
				</g>
			</g>
			<g>
				<path fill="#0F346B" d="M124.065,54.037c-12.549,0-22.76-10.209-22.76-22.758s10.211-22.758,22.76-22.758
					s22.758,10.209,22.758,22.758S136.614,54.037,124.065,54.037z M124.065,18.678c-6.951,0-12.602,5.652-12.602,12.602
					s5.65,12.604,12.602,12.604c6.949,0,12.604-5.654,12.604-12.604S131.015,18.678,124.065,18.678z"/>
			</g>
		</g>
	</g>
	<g>
		<path fill="#0F346B" d="M8.311,11.014l0.979-5.092l1.75,4.045l1.758-4.045l0.978,5.092h-0.55l-0.619-3.258h-0.014l-1.553,3.457
			L9.493,7.756H9.48l-0.62,3.258H8.311z"/>
		<path fill="#0F346B" d="M17.449,8.943l-1.578-2.748h0.619l1.227,2.148l1.227-2.148h0.621l-1.579,2.748v2.07h-0.536V8.943z"/>
		<path fill="#0F346B" d="M24.625,6.861l-0.429,0.273c-0.2-0.348-0.478-0.523-0.831-0.523c-0.217,0-0.404,0.07-0.562,0.211
			c-0.157,0.141-0.236,0.32-0.236,0.537c0,0.098,0.021,0.188,0.064,0.268c0.043,0.082,0.108,0.152,0.198,0.215
			c0.089,0.061,0.165,0.109,0.227,0.143c0.062,0.035,0.15,0.078,0.265,0.129l0.32,0.141c0.184,0.08,0.334,0.156,0.453,0.227
			s0.238,0.158,0.355,0.262c0.117,0.105,0.204,0.229,0.262,0.375c0.058,0.145,0.086,0.309,0.086,0.49
			c0,0.418-0.146,0.771-0.441,1.059c-0.293,0.287-0.65,0.432-1.072,0.432c-0.384,0-0.711-0.115-0.981-0.342
			c-0.271-0.229-0.444-0.529-0.521-0.904l0.523-0.146c0.034,0.25,0.141,0.463,0.32,0.635c0.178,0.172,0.394,0.26,0.645,0.26
			c0.265,0,0.496-0.092,0.693-0.271c0.198-0.182,0.297-0.404,0.297-0.668c0-0.107-0.018-0.207-0.054-0.297
			c-0.036-0.092-0.077-0.166-0.122-0.221c-0.044-0.057-0.115-0.115-0.213-0.18c-0.099-0.064-0.176-0.109-0.23-0.137
			c-0.056-0.027-0.145-0.07-0.269-0.125l-0.294-0.129c-0.341-0.152-0.601-0.318-0.779-0.498C22.119,7.896,22.03,7.65,22.03,7.34
			c0-0.361,0.132-0.656,0.396-0.885c0.265-0.229,0.582-0.342,0.953-0.342c0.268,0,0.511,0.064,0.729,0.195
			C24.324,6.438,24.496,6.623,24.625,6.861z"/>
		<path fill="#0F346B" d="M28.777,6.695v4.318h-0.536V6.695h-1.163v-0.5h2.875v0.5H28.777z"/>
		<path fill="#0F346B" d="M32.42,11.014V6.195h2.499v0.5h-1.962v1.43h1.904v0.5h-1.904v1.891h1.962v0.498H32.42z"/>
		<path fill="#0F346B" d="M38.286,8.898v2.115H37.75V6.195h0.695c0.248,0,0.469,0.02,0.665,0.059
			c0.196,0.037,0.382,0.104,0.556,0.197c0.175,0.094,0.309,0.232,0.402,0.412c0.094,0.182,0.141,0.402,0.141,0.662
			c0,0.371-0.107,0.678-0.325,0.92s-0.511,0.379-0.882,0.408l1.533,2.16h-0.658L38.42,8.898H38.286z M38.286,6.695v1.73h0.166
			c0.171,0,0.321-0.01,0.45-0.031c0.131-0.021,0.258-0.061,0.384-0.119c0.126-0.057,0.222-0.145,0.288-0.264
			c0.065-0.119,0.099-0.27,0.099-0.447c0-0.154-0.023-0.285-0.07-0.395c-0.047-0.107-0.104-0.193-0.173-0.256
			c-0.068-0.061-0.16-0.109-0.274-0.143c-0.115-0.035-0.226-0.055-0.329-0.064c-0.104-0.008-0.231-0.012-0.381-0.012H38.286z"/>
		<path fill="#0F346B" d="M44.146,8.943l-1.578-2.748h0.62l1.227,2.148l1.227-2.148h0.62l-1.579,2.748v2.07h-0.536V8.943z"/>
		<path fill="#0F346B" d="M56.268,6.586V7.25c-0.414-0.426-0.903-0.639-1.47-0.639c-0.532,0-0.989,0.197-1.371,0.594
			c-0.381,0.396-0.571,0.863-0.571,1.4s0.191,1.002,0.574,1.398c0.384,0.396,0.844,0.596,1.381,0.596
			c0.545,0,1.031-0.213,1.457-0.641v0.666c-0.435,0.314-0.914,0.473-1.438,0.473c-0.682,0-1.271-0.242-1.768-0.727
			c-0.496-0.482-0.744-1.064-0.744-1.746c0-0.691,0.246-1.281,0.738-1.773s1.083-0.738,1.773-0.738
			C55.366,6.113,55.846,6.271,56.268,6.586z"/>
		<path fill="#0F346B" d="M59.629,8.898v2.115h-0.537V6.195h0.696c0.247,0,0.469,0.02,0.665,0.059
			c0.195,0.037,0.381,0.104,0.556,0.197s0.309,0.232,0.402,0.412c0.094,0.182,0.141,0.402,0.141,0.662
			c0,0.371-0.108,0.678-0.325,0.92c-0.218,0.242-0.512,0.379-0.883,0.408l1.533,2.16h-0.658l-1.456-2.115H59.629z M59.629,6.695
			v1.73h0.166c0.17,0,0.32-0.01,0.45-0.031s0.258-0.061,0.384-0.119c0.125-0.057,0.221-0.145,0.287-0.264s0.1-0.27,0.1-0.447
			c0-0.154-0.023-0.285-0.07-0.395c-0.047-0.107-0.105-0.193-0.174-0.256c-0.067-0.061-0.159-0.109-0.273-0.143
			c-0.115-0.035-0.226-0.055-0.33-0.064c-0.104-0.008-0.23-0.012-0.38-0.012H59.629z"/>
		<path fill="#0F346B" d="M64.473,11.014V6.195h2.498v0.5h-1.962v1.43h1.904v0.5h-1.904v1.891h1.962v0.498H64.473z"/>
		<path fill="#0F346B" d="M69.801,11.014V6.195H72.3v0.5h-1.962v1.43h1.904v0.5h-1.904v1.891H72.3v0.498H69.801z"/>
		<path fill="#0F346B" d="M75.667,8.26l2.052-2.064h0.722l-2.263,2.244l2.34,2.574h-0.742l-1.975-2.211l-0.134,0.135v2.076h-0.536
			V6.195h0.536V8.26z"/>
	</g>
	<g>
		<path fill="#0F346B" d="M165.191,11.385h2.401v0.588h-3.686l2.666-3.148c0.257-0.307,0.385-0.625,0.385-0.951
			c0-0.312-0.11-0.574-0.332-0.785c-0.222-0.213-0.488-0.318-0.8-0.318c-0.338,0-0.611,0.111-0.82,0.332
			c-0.209,0.223-0.318,0.502-0.328,0.84h-0.635c0.01-0.504,0.182-0.924,0.514-1.258c0.332-0.336,0.748-0.502,1.246-0.502
			c0.488,0,0.908,0.158,1.262,0.479c0.352,0.32,0.528,0.721,0.528,1.205c0,0.469-0.144,0.869-0.431,1.201L165.191,11.385z"/>
		<path fill="#0F346B" d="M171.92,6.471c0.271-0.193,0.578-0.289,0.922-0.289c0.342,0,0.648,0.096,0.92,0.289
			c0.272,0.195,0.486,0.445,0.643,0.752s0.274,0.625,0.355,0.951c0.08,0.328,0.12,0.648,0.12,0.959c0,0.357-0.046,0.709-0.14,1.055
			c-0.094,0.344-0.223,0.658-0.389,0.939c-0.166,0.283-0.381,0.51-0.646,0.684c-0.264,0.174-0.552,0.262-0.863,0.262
			c-0.312,0-0.602-0.088-0.865-0.262c-0.265-0.174-0.479-0.4-0.646-0.684c-0.166-0.281-0.295-0.596-0.389-0.939
			c-0.093-0.346-0.139-0.697-0.139-1.055c0-0.311,0.039-0.631,0.12-0.959c0.081-0.326,0.198-0.645,0.354-0.951
			S171.648,6.666,171.92,6.471z M173.51,7.027c-0.194-0.172-0.417-0.258-0.668-0.258c-0.252,0-0.475,0.086-0.669,0.258
			c-0.194,0.17-0.343,0.387-0.446,0.645c-0.103,0.26-0.178,0.518-0.227,0.775c-0.047,0.256-0.068,0.494-0.063,0.717
			c0.005,0.227,0.032,0.461,0.083,0.705s0.126,0.492,0.227,0.744s0.246,0.461,0.438,0.623c0.191,0.164,0.41,0.246,0.658,0.246
			c0.246,0,0.465-0.082,0.656-0.246c0.191-0.162,0.338-0.371,0.438-0.623c0.102-0.252,0.177-0.5,0.227-0.744
			c0.051-0.244,0.078-0.479,0.084-0.705c0.004-0.223-0.017-0.461-0.064-0.717c-0.048-0.258-0.123-0.516-0.227-0.775
			C173.852,7.414,173.703,7.197,173.51,7.027z"/>
		<path fill="#0F346B" d="M179.57,6.867h-0.944l0.332-0.588h1.246v5.693h-0.634V6.867z"/>
		<path fill="#0F346B" d="M188.3,6.867h-1.82l-0.37,1.217l0.34-0.029c0.555,0,1.008,0.191,1.363,0.572
			c0.355,0.383,0.533,0.854,0.533,1.412c0,0.584-0.202,1.07-0.605,1.455c-0.402,0.385-0.898,0.578-1.487,0.578
			c-0.372,0-0.708-0.09-1.008-0.27c-0.3-0.178-0.545-0.428-0.736-0.75l0.506-0.363c0.131,0.236,0.308,0.428,0.532,0.574
			s0.467,0.219,0.729,0.219c0.418,0,0.762-0.139,1.031-0.416c0.27-0.275,0.404-0.623,0.404-1.041c0-0.398-0.137-0.729-0.408-0.99
			s-0.609-0.393-1.012-0.393c-0.348,0-0.707,0.121-1.08,0.363l0.823-2.727h2.266V6.867z"/>
	</g>
	<g>
		<path fill="#0F346B" d="M9.525,54.566h2.031v0.498H8.439l2.255-2.666c0.218-0.26,0.326-0.527,0.326-0.805
			c0-0.264-0.094-0.484-0.281-0.664s-0.413-0.268-0.677-0.268c-0.286,0-0.518,0.094-0.693,0.281
			c-0.178,0.188-0.27,0.424-0.279,0.709H8.554c0.009-0.426,0.153-0.781,0.435-1.064s0.633-0.426,1.055-0.426
			c0.412,0,0.769,0.137,1.066,0.406c0.299,0.271,0.447,0.611,0.447,1.02c0,0.396-0.121,0.734-0.363,1.016L9.525,54.566z"/>
		<path fill="#0F346B" d="M15.762,52.783v-0.498c0.294-0.014,0.525-0.076,0.696-0.189s0.255-0.311,0.255-0.592
			c0-0.254-0.077-0.459-0.232-0.613c-0.156-0.152-0.359-0.229-0.61-0.229c-0.234,0-0.419,0.07-0.556,0.211
			c-0.137,0.139-0.215,0.326-0.236,0.561h-0.531c0.039-0.391,0.174-0.701,0.406-0.93c0.232-0.227,0.542-0.342,0.93-0.342
			c0.393,0,0.718,0.123,0.978,0.365c0.261,0.242,0.39,0.561,0.39,0.951c0,0.219-0.055,0.424-0.166,0.617
			c-0.11,0.193-0.262,0.34-0.453,0.438c0.226,0.104,0.396,0.26,0.514,0.473s0.176,0.449,0.176,0.709
			c0,0.418-0.145,0.762-0.434,1.029c-0.291,0.27-0.645,0.402-1.062,0.402c-0.396,0-0.732-0.123-1.009-0.369
			c-0.277-0.248-0.418-0.57-0.422-0.967h0.523c0.013,0.244,0.109,0.443,0.287,0.602c0.18,0.158,0.393,0.236,0.64,0.236
			c0.264,0,0.486-0.094,0.667-0.281c0.182-0.188,0.271-0.416,0.271-0.684c0-0.299-0.094-0.525-0.283-0.68
			C16.311,52.848,16.064,52.773,15.762,52.783z"/>
		<path fill="#0F346B" d="M20.905,52.949v2.115h-0.536v-4.818h0.695c0.248,0,0.469,0.02,0.665,0.057
			c0.196,0.039,0.382,0.105,0.556,0.199c0.175,0.094,0.309,0.23,0.402,0.412s0.141,0.4,0.141,0.66c0,0.371-0.107,0.678-0.325,0.922
			c-0.218,0.242-0.511,0.379-0.882,0.408l1.533,2.16h-0.658l-1.457-2.115H20.905z M20.905,50.744v1.732h0.166
			c0.171,0,0.321-0.012,0.45-0.033c0.131-0.021,0.258-0.061,0.384-0.117c0.126-0.059,0.222-0.146,0.288-0.266
			c0.065-0.119,0.099-0.268,0.099-0.447c0-0.152-0.023-0.285-0.07-0.393c-0.047-0.109-0.104-0.193-0.173-0.256
			s-0.16-0.109-0.274-0.145c-0.115-0.033-0.226-0.055-0.329-0.062c-0.104-0.01-0.231-0.014-0.381-0.014H20.905z"/>
		<path fill="#0F346B" d="M25.749,55.064v-4.818h0.907c0.4,0,0.748,0.041,1.041,0.121c0.295,0.082,0.573,0.234,0.838,0.461
			c0.532,0.459,0.799,1.07,0.799,1.834c0,0.729-0.262,1.326-0.786,1.795c-0.269,0.238-0.549,0.398-0.841,0.482
			c-0.291,0.082-0.646,0.125-1.063,0.125H25.749z M26.285,54.566h0.391c0.328,0,0.611-0.035,0.853-0.105s0.464-0.201,0.668-0.395
			c0.4-0.375,0.601-0.846,0.601-1.412c0-0.596-0.209-1.076-0.627-1.443c-0.203-0.184-0.424-0.307-0.66-0.371
			s-0.515-0.096-0.834-0.096h-0.391V54.566z"/>
		<path fill="#0F346B" d="M35.41,53.287h1.311v0.473H35.41V53.287z"/>
		<path fill="#0F346B" d="M43.877,54.566h2.033v0.498h-3.119l2.256-2.666c0.217-0.26,0.326-0.527,0.326-0.805
			c0-0.264-0.094-0.484-0.281-0.664s-0.414-0.268-0.678-0.268c-0.285,0-0.516,0.094-0.693,0.281
			c-0.176,0.188-0.27,0.424-0.277,0.709h-0.537c0.009-0.426,0.153-0.781,0.435-1.064s0.633-0.426,1.054-0.426
			c0.414,0,0.77,0.137,1.068,0.406c0.297,0.271,0.447,0.611,0.447,1.02c0,0.396-0.122,0.734-0.365,1.016L43.877,54.566z"/>
		<path fill="#0F346B" d="M50.702,50.162l0.402,0.301l-1.112,1.496l0.014,0.012c0.131-0.047,0.271-0.07,0.422-0.07
			c0.434,0,0.803,0.156,1.105,0.467c0.302,0.311,0.453,0.686,0.453,1.125c0,0.459-0.163,0.852-0.488,1.172
			c-0.326,0.322-0.717,0.482-1.174,0.482c-0.455,0-0.846-0.162-1.172-0.484c-0.326-0.324-0.488-0.713-0.488-1.164
			c0-0.361,0.146-0.748,0.44-1.156L50.702,50.162z M49.529,54.316c0.219,0.221,0.484,0.332,0.795,0.332
			c0.312,0,0.576-0.111,0.797-0.332c0.219-0.221,0.328-0.49,0.328-0.805c0-0.311-0.109-0.574-0.328-0.789
			c-0.221-0.215-0.485-0.324-0.797-0.324c-0.314,0-0.581,0.109-0.798,0.324c-0.218,0.215-0.326,0.479-0.326,0.789
			C49.2,53.826,49.311,54.096,49.529,54.316z"/>
		<path fill="#0F346B" d="M55.999,50.744v4.32h-0.536v-4.32h-1.164v-0.498h2.876v0.498H55.999z"/>
		<path fill="#0F346B" d="M60.203,52.201h2.467v-1.955h0.537v4.818H62.67v-2.365h-2.467v2.365h-0.536v-4.818h0.536V52.201z"/>
		<path fill="#0F346B" d="M71.028,50.246v3.814c0,0.17-0.003,0.303-0.009,0.4c-0.007,0.096-0.028,0.213-0.064,0.352
			c-0.036,0.137-0.093,0.256-0.17,0.354c-0.199,0.264-0.477,0.396-0.83,0.396c-0.29,0-0.575-0.119-0.856-0.357l0.3-0.416
			c0.197,0.184,0.387,0.275,0.569,0.275c0.085,0,0.159-0.016,0.221-0.045s0.11-0.076,0.147-0.137
			c0.035-0.062,0.065-0.121,0.089-0.176c0.023-0.057,0.039-0.129,0.048-0.221c0.008-0.092,0.014-0.164,0.016-0.215
			s0.004-0.121,0.004-0.211v-3.814H71.028z"/>
		<path fill="#0F346B" d="M76.709,53.697h-2.058l-0.581,1.367h-0.588l2.224-5.049l2.166,5.049h-0.595L76.709,53.697z M76.498,53.197
			l-0.805-1.93l-0.824,1.93H76.498z"/>
		<path fill="#0F346B" d="M80.345,55.064v-5.023l3.757,3.938v-3.732h0.537v5.035l-3.758-3.93v3.713H80.345z"/>
	</g>
	<g>
		<path fill="#0F346B" d="M156.1,54.533c0.07-0.068,0.155-0.102,0.253-0.102c0.099,0,0.183,0.033,0.253,0.102
			s0.105,0.152,0.105,0.25s-0.035,0.184-0.105,0.256s-0.154,0.107-0.253,0.107c-0.098,0-0.183-0.035-0.253-0.107
			s-0.104-0.158-0.104-0.256S156.029,54.602,156.1,54.533z"/>
		<path fill="#0F346B" d="M163.414,50.635v0.666c-0.414-0.426-0.903-0.639-1.47-0.639c-0.532,0-0.989,0.197-1.371,0.594
			c-0.381,0.396-0.571,0.861-0.571,1.398s0.191,1.004,0.574,1.4c0.384,0.396,0.844,0.594,1.381,0.594
			c0.545,0,1.031-0.213,1.457-0.639v0.664c-0.435,0.316-0.914,0.473-1.438,0.473c-0.682,0-1.271-0.24-1.768-0.725
			s-0.744-1.066-0.744-1.748c0-0.689,0.246-1.281,0.738-1.773s1.083-0.738,1.773-0.738C162.513,50.162,162.992,50.32,163.414,50.635
			z"/>
		<path fill="#0F346B" d="M166.733,50.895c0.492-0.488,1.083-0.732,1.772-0.732c0.691,0,1.281,0.244,1.773,0.732
			s0.738,1.076,0.738,1.768c0,0.689-0.246,1.275-0.738,1.76s-1.082,0.725-1.773,0.725c-0.689,0-1.28-0.24-1.772-0.725
			s-0.738-1.07-0.738-1.76C165.995,51.971,166.241,51.383,166.733,50.895z M169.906,51.246c-0.384-0.391-0.85-0.584-1.4-0.584
			c-0.549,0-1.016,0.193-1.398,0.584c-0.384,0.389-0.575,0.859-0.575,1.408c0,0.547,0.192,1.014,0.578,1.406
			s0.851,0.588,1.396,0.588c0.546,0,1.012-0.195,1.396-0.588c0.386-0.393,0.578-0.859,0.578-1.406
			C170.48,52.105,170.289,51.635,169.906,51.246z"/>
		<path fill="#0F346B" d="M173.909,54.533c0.07-0.068,0.155-0.102,0.253-0.102s0.182,0.033,0.252,0.102s0.105,0.152,0.105,0.25
			s-0.035,0.184-0.105,0.256s-0.154,0.107-0.252,0.107s-0.183-0.035-0.253-0.107s-0.104-0.158-0.104-0.256
			S173.839,54.602,173.909,54.533z"/>
		<path fill="#0F346B" d="M177.58,55.064v-5.023l3.758,3.938v-3.732h0.537v5.035l-3.758-3.93v3.713H177.58z"/>
		<path fill="#0F346B" d="M185.287,54.566h2.562v0.498h-3.451l2.627-4.32h-2.295v-0.498h3.189L185.287,54.566z"/>
	</g>
</g>
</svg>
