<?xml version="1.0" encoding="utf-8"?>
<!-- Generator: Adobe Illustrator 16.0.0, SVG Export Plug-In . SVG Version: 6.00 Build 0)  -->
<!DOCTYPE svg PUBLIC "-//W3C//DTD SVG 1.1//EN" "http://www.w3.org/Graphics/SVG/1.1/DTD/svg11.dtd">
<svg version="1.1" id="Layer_1" xmlns="http://www.w3.org/2000/svg" xmlns:xlink="http://www.w3.org/1999/xlink" x="0px" y="0px"
	 width="341.983px" height="80.996px" viewBox="0 0 341.983 80.996" enable-background="new 0 0 341.983 80.996"
	 xml:space="preserve">
<g>
	<path fill-rule="evenodd" clip-rule="evenodd" fill="#0F346B" d="M184.508,38.777c0.032-0.627,0.092-1.253,0.092-1.883
		c0.007-7.709,0.032-15.42-0.021-23.129c-0.01-1.377,0.323-1.941,1.812-1.875c2.585,0.113,5.183,0.119,7.767-0.002
		c1.576-0.074,2.059,0.393,2.051,2.012c-0.066,12.227-0.037,24.455-0.037,36.682c0,5.541-0.039,11.082,0.027,16.623
		c0.017,1.396-0.354,1.926-1.823,1.867c-2.706-0.109-5.423-0.102-8.129-0.002c-1.345,0.049-1.881-0.527-2.323-1.705
		c-3.077-8.209-6.223-16.395-9.349-24.586c-0.082-0.213-0.191-0.416-0.704-0.635c-0.037,0.641-0.109,1.281-0.109,1.922
		c-0.008,7.65-0.044,15.299,0.028,22.949c0.015,1.549-0.354,2.148-2,2.061c-2.522-0.134-5.062-0.125-7.586-0.002
		c-1.577,0.076-2.058-0.395-2.049-2.014c0.065-12.227,0.035-24.452,0.035-36.68c0-5.543,0.04-11.084-0.026-16.625
		c-0.017-1.396,0.354-1.924,1.823-1.865c2.706,0.109,5.422,0.102,8.129,0.002c1.345-0.051,1.88,0.525,2.321,1.705
		c3.077,8.209,6.225,16.393,9.351,24.584c0.082,0.213,0.191,0.418,0.287,0.627C184.219,38.799,184.363,38.789,184.508,38.777"/>
	<path fill-rule="evenodd" clip-rule="evenodd" fill="#0F346B" d="M42.88,40.662c0,8.797-0.04,17.594,0.036,26.391
		c0.014,1.605-0.451,2.097-2.041,2.021c-2.646-0.123-5.303-0.091-7.951-0.01c-1.298,0.041-1.641-0.455-1.632-1.684
		c0.048-6.145,0.023-12.291,0.021-18.438c-0.001-2.314-0.005-2.314-2.396-2.316c-2.049-0.002-4.105,0.109-6.145-0.033
		c-1.773-0.127-2.399,0.346-2.356,2.265c0.133,6.079,0.008,12.167,0.078,18.253c0.018,1.469-0.373,2.025-1.912,1.961
		c-2.707-0.113-5.423-0.074-8.132-0.014c-1.172,0.027-1.571-0.373-1.569-1.557c0.027-18.014,0.027-36.029,0-54.045
		c-0.002-1.186,0.399-1.58,1.57-1.555c2.771,0.062,5.545,0.086,8.313-0.008c1.381-0.047,1.736,0.461,1.726,1.777
		c-0.057,6.385,0.056,12.773-0.074,19.158c-0.04,1.918,0.586,2.385,2.358,2.264c2.099-0.145,4.222-0.137,6.321-0.002
		c1.695,0.107,2.288-0.381,2.259-2.172c-0.104-6.385-0.006-12.773-0.067-19.16c-0.014-1.389,0.343-1.932,1.819-1.869
		c2.646,0.111,5.304,0.102,7.95,0.002c1.423-0.053,1.862,0.396,1.853,1.838C42.851,22.707,42.88,31.686,42.88,40.662"/>
	<path fill-rule="evenodd" clip-rule="evenodd" fill="#0F346B" d="M315.816,69.041c-5.001,0-10.003-0.068-15.003,0.037
		c-1.645,0.035-2.001-0.52-1.997-2.066c0.051-17.715,0.047-35.43,0.005-53.145c-0.003-1.445,0.335-1.988,1.892-1.979
		c10.123,0.064,20.247,0.057,30.369,0.006c1.444-0.006,2.07,0.357,2.01,1.91c-0.103,2.648-0.082,5.304-0.007,7.951
		c0.038,1.354-0.464,1.769-1.794,1.756c-6.326-0.055-12.653,0.02-18.979-0.057c-1.516-0.018-1.986,0.457-1.926,1.949
		c0.105,2.648,0.096,5.305,0.002,7.954c-0.048,1.378,0.457,1.747,1.776,1.726c4.458-0.066,8.918,0.02,13.375-0.049
		c1.417-0.021,1.93,0.455,1.888,1.871c-0.079,2.65-0.069,5.303-0.005,7.953c0.033,1.322-0.439,1.807-1.783,1.79
		c-4.458-0.062-8.918,0.021-13.375-0.05c-1.377-0.021-1.952,0.32-1.88,1.811c0.116,2.404,0.101,4.823,0.005,7.229
		c-0.057,1.402,0.36,1.886,1.824,1.867c6.265-0.074,12.533,0.014,18.798-0.062c1.56-0.02,2.159,0.402,2.085,2.025
		c-0.118,2.525-0.119,5.062,0,7.588c0.076,1.639-0.549,2.041-2.096,2.016C325.94,68.988,320.878,69.041,315.816,69.041"/>
	<path fill-rule="evenodd" clip-rule="evenodd" fill="#0F346B" d="M235.938,40.5c0,3.855,0.01,7.713-0.002,11.568
		c-0.022,7.432-4.777,14.779-13.727,16.707c-7.068,1.525-15.034-2.074-18.371-9.016c-1.134-2.357-1.717-5.176-1.797-7.809
		c-0.232-7.645-0.108-15.301-0.076-22.951c0.037-8.621,5.703-15.338,14.155-16.857c8.108-1.459,16.036,3.139,18.858,11.121
		c0.63,1.779,0.851,3.768,0.918,5.67C236.034,32.785,235.938,36.645,235.938,40.5 M213.525,40.484c0,3.674-0.023,7.348,0.008,11.021
		c0.029,3.523,2.267,5.949,5.418,5.947c3.148,0,5.399-2.428,5.411-5.955c0.027-7.346,0.027-14.693,0-22.041
		c-0.013-3.525-2.265-5.949-5.418-5.949c-3.149,0.002-5.383,2.43-5.412,5.955C213.502,33.137,213.525,36.811,213.525,40.484"/>
	<path fill-rule="evenodd" clip-rule="evenodd" fill="#0F346B" d="M287.122,29.221c-0.542,0-1.089-0.043-1.626,0.008
		c-2.238,0.211-4.03,0.174-4.767-2.748c-0.574-2.271-3.231-3.293-5.605-2.914c-2.127,0.34-4.056,2.393-4.419,4.703
		c-0.386,2.453,0.742,5.068,2.755,5.99c0.958,0.436,2.057,0.727,3.104,0.773c8.649,0.398,14.955,5.947,16.366,14.492
		c1.281,7.752-3.171,15.738-10.765,18.453c-10.666,3.814-21.58-2.65-23.025-14.184c-0.199-1.582,0.252-2.17,1.906-2.086
		c2.463,0.125,4.941,0.104,7.407,0.006c1.396-0.057,2.096,0.26,2.492,1.779c0.759,2.9,3.465,4.438,6.252,3.875
		c2.788-0.561,4.567-3.094,4.241-6.035c-0.305-2.74-2.611-4.58-5.898-4.711c-6.098-0.248-10.793-2.889-14.018-8.125
		c-4.439-7.209-2.681-17.686,3.891-22.928c6.534-5.211,16.394-4.814,22.36,0.951c3.06,2.953,4.715,6.617,5.237,10.826
		c0.172,1.389-0.231,2.016-1.734,1.896C289.9,29.133,288.508,29.221,287.122,29.221"/>
	<path fill-rule="evenodd" clip-rule="evenodd" fill="#0F346B" d="M82.602,69.012c-3.734,0-7.149,0.035-10.563-0.055
		c-0.338-0.01-0.852-0.734-0.952-1.199c-0.564-2.582-1.037-5.186-1.519-7.787c-0.454-2.449-0.496-2.496-3.01-2.498
		c-4.202-0.004-4.217-0.008-5.096,4.037c-0.446,2.057-0.764,4.143-1.289,6.176c-0.135,0.521-0.823,1.27-1.277,1.283
		c-3.297,0.111-6.598,0.061-10.009,0.061c-0.037-0.492-0.141-0.842-0.076-1.16c1.3-6.48,2.636-12.953,3.928-19.436
		c1.54-7.719,3.05-15.445,4.562-23.17c0.785-4.006,1.5-8.027,2.38-12.014c0.116-0.529,1.001-1.24,1.556-1.266
		c2.884-0.126,5.777-0.033,8.666-0.074c1.052-0.016,1.533,0.465,1.721,1.43c1.248,6.43,2.498,12.857,3.765,19.281
		c1.568,7.957,3.153,15.91,4.731,23.867C80.924,60.543,81.727,64.598,82.602,69.012 M65.807,41.82
		c-0.123-0.012-0.245-0.023-0.368-0.035c-0.269,1.057-0.612,2.102-0.755,3.174c-0.034,0.266,0.588,0.617,0.908,0.928
		c0.332-0.355,0.975-0.744,0.941-1.062C66.426,43.809,66.068,42.82,65.807,41.82"/>
	<path fill-rule="evenodd" clip-rule="evenodd" fill="#0F346B" d="M122.421,40.477c0-8.852,0.036-17.702-0.036-26.555
		c-0.013-1.584,0.421-2.047,2.023-2.037c10.055,0.072,20.111,0.066,30.167,0.006c1.545-0.01,2.167,0.379,2.093,2.014
		c-0.119,2.584-0.097,5.18-0.008,7.766c0.049,1.439-0.49,1.855-1.89,1.844c-6.321-0.061-12.645,0.012-18.966-0.055
		c-1.424-0.016-1.901,0.4-1.847,1.84c0.102,2.707,0.082,5.42,0.006,8.129c-0.035,1.266,0.399,1.67,1.659,1.654
		c4.515-0.061,9.032,0.012,13.548-0.043c1.298-0.015,1.858,0.379,1.823,1.744c-0.068,2.707-0.068,5.42,0.001,8.127
		c0.035,1.373-0.543,1.75-1.832,1.736c-4.516-0.053-9.032,0.018-13.548-0.043c-1.269-0.018-1.66,0.408-1.651,1.662
		c0.05,6.322-0.018,12.645,0.053,18.968c0.017,1.438-0.427,1.89-1.851,1.835c-2.646-0.1-5.302-0.105-7.945,0.002
		c-1.463,0.061-1.836-0.459-1.828-1.859C122.447,58.299,122.421,49.387,122.421,40.477"/>
	<path fill-rule="evenodd" clip-rule="evenodd" fill="#0F346B" d="M88.436,40.299c0-8.793,0.039-17.586-0.035-26.379
		c-0.013-1.588,0.422-2.115,2.029-2.033c2.522,0.129,5.062,0.131,7.584,0c1.615-0.084,2.029,0.457,2.022,2.039
		c-0.06,13.609-0.037,27.221-0.03,40.83c0.001,2.998-0.283,2.707,2.715,2.715c4.155,0.013,8.312,0.041,12.467-0.018
		c1.3-0.018,1.858,0.383,1.823,1.746c-0.068,2.707-0.069,5.422,0,8.129c0.036,1.377-0.551,1.738-1.836,1.732
		c-8.311-0.039-16.622-0.053-24.932,0.01c-1.444,0.012-1.844-0.438-1.835-1.852C88.465,58.244,88.436,49.271,88.436,40.299"/>
	<path fill-rule="evenodd" clip-rule="evenodd" fill="#0F346B" d="M241.727,40.488c0-8.854,0.037-17.707-0.035-26.559
		c-0.012-1.571,0.396-2.127,2.019-2.043c2.522,0.131,5.062,0.129,7.585,0.002c1.601-0.082,2.039,0.432,2.032,2.027
		c-0.061,13.549-0.035,27.1-0.035,40.65c0,4.275-0.036,8.553,0.022,12.828c0.018,1.244-0.361,1.707-1.643,1.67
		c-2.708-0.08-5.423-0.096-8.129,0.004c-1.432,0.055-1.855-0.41-1.846-1.842C241.756,58.314,241.727,49.4,241.727,40.488"/>
</g>
</svg>
