<?xml version="1.0" encoding="utf-8"?>
<!-- Generator: Adobe Illustrator 18.1.0, SVG Export Plug-In . SVG Version: 6.00 Build 0)  -->
<svg version="1.1" xmlns="http://www.w3.org/2000/svg" xmlns:xlink="http://www.w3.org/1999/xlink" x="0px" y="0px"
	 viewBox="0 0 170.667 26.667" enable-background="new 0 0 170.667 26.667" xml:space="preserve">
<g id="Layer_1">
	<g>
		<path fill="#1F376A" d="M15.497,15.329h1.822v3.027H14.88l-0.589,3.028h-3.028l0.589-3.028H8.825l-0.589,3.028H5.209l0.589-3.028
			H4.451v-3.027h1.963l0.589-3.028H5.209V9.274H7.62l0.616-3.028h3.028l-0.617,3.028h3.028l0.617-3.028h3.028l-0.617,3.028h1.373
			v3.028h-1.99L15.497,15.329z M9.441,15.329h3.028l0.589-3.028H10.03L9.441,15.329z"/>
		<path fill="#1F376A" d="M19.617,5.641h9.419v3.162h-6.279v3.117h4.71v3.162h-4.71v6.302h-3.14V5.641z"/>
		<path fill="#1F376A" d="M30.605,5.641h9.419v3.162h-6.279v3.117h4.71v3.162h-4.71v3.14h6.279v3.162h-9.419V5.641z"/>
		<path fill="#1F376A" d="M46.304,8.803c-0.448,0-0.822,0.149-1.121,0.445c-0.299,0.297-0.449,0.668-0.449,1.113
			c0,0.445,0.15,0.817,0.449,1.113c0.298,0.297,0.673,0.445,1.121,0.445c0.673,0,1.298,0.12,1.873,0.36
			c0.576,0.239,1.073,0.573,1.492,1c0.418,0.427,0.747,0.925,0.986,1.495s0.359,1.192,0.359,1.865c0,0.675-0.12,1.3-0.359,1.878
			c-0.239,0.577-0.569,1.079-0.986,1.506c-0.419,0.427-0.916,0.761-1.492,1c-0.575,0.24-1.199,0.36-1.873,0.36
			c-0.673,0-1.293-0.12-1.861-0.359c-0.569-0.239-1.066-0.572-1.492-0.998s-0.758-0.926-0.997-1.502
			c-0.24-0.576-0.36-1.2-0.36-1.873h3.14c0,0.448,0.15,0.822,0.449,1.121c0.298,0.298,0.673,0.448,1.121,0.448
			c0.449,0,0.822-0.15,1.121-0.448c0.299-0.299,0.449-0.673,0.449-1.121c0-0.449-0.15-0.822-0.449-1.121
			c-0.299-0.299-0.673-0.449-1.121-0.449c-0.673,0-1.297-0.12-1.873-0.359s-1.073-0.572-1.491-0.997
			c-0.419-0.426-0.747-0.923-0.986-1.492c-0.24-0.568-0.36-1.188-0.36-1.862c0-0.673,0.12-1.297,0.36-1.873
			c0.239-0.575,0.568-1.076,0.986-1.502C43.358,6.572,43.855,6.239,44.431,6c0.576-0.239,1.2-0.359,1.873-0.359
			c0.673,0,1.293,0.12,1.862,0.359c0.569,0.239,1.066,0.572,1.491,0.998c0.426,0.426,0.759,0.927,0.998,1.502
			c0.239,0.576,0.359,1.2,0.359,1.873h-3.139c0-0.448-0.15-0.821-0.449-1.121S46.753,8.803,46.304,8.803z"/>
		<path fill="#1F376A" d="M52.583,5.641h9.419v3.162h-3.139v12.581h-3.14V8.803h-3.14V5.641z"/>
		<path fill="#1F376A" d="M66.711,21.384h-3.14V5.641h3.14V21.384z"/>
		<path fill="#1F376A" d="M72.99,13.512l1.57-7.871h3.14l-3.14,15.743h-3.139l-3.14-15.743h3.14L72.99,13.512z"/>
		<path fill="#1F376A" d="M82.567,18.222h-1.883l-0.628,3.162h-3.14l3.14-15.743h3.139l3.14,15.743h-3.14L82.567,18.222z
			 M81.311,15.06h0.628l-0.314-1.57L81.311,15.06z"/>
		<path fill="#1F376A" d="M87.904,5.641h3.14v12.581h4.71v3.162h-7.85V5.641z"/>
		<path fill="#1F376A" d="M96.538,10.372c0-0.673,0.12-1.297,0.359-1.873c0.239-0.575,0.572-1.076,0.998-1.502
			C98.321,6.572,98.818,6.239,99.386,6c0.569-0.239,1.189-0.359,1.862-0.359c0.673,0,1.293,0.12,1.862,0.359
			c0.568,0.239,1.065,0.572,1.491,0.998c0.426,0.426,0.759,0.927,0.998,1.502c0.239,0.576,0.359,1.2,0.359,1.873v6.28
			c0,0.673-0.12,1.297-0.359,1.873s-0.572,1.076-0.998,1.502c-0.426,0.426-0.923,0.759-1.491,0.998
			c-0.569,0.239-1.189,0.359-1.862,0.359c-0.673,0-1.293-0.12-1.862-0.359c-0.569-0.239-1.065-0.572-1.491-0.998
			c-0.426-0.426-0.759-0.926-0.998-1.502s-0.359-1.2-0.359-1.873V10.372z M99.678,16.652c0,0.448,0.149,0.822,0.448,1.121
			c0.299,0.298,0.673,0.448,1.121,0.448c0.449,0,0.822-0.15,1.121-0.448c0.298-0.299,0.448-0.673,0.448-1.121v-6.28
			c0-0.448-0.15-0.821-0.448-1.121c-0.299-0.299-0.673-0.449-1.121-0.449c-0.448,0-0.822,0.15-1.121,0.449s-0.448,0.673-0.448,1.121
			V16.652z"/>
		<path fill="#1F376A" d="M110.667,13.512v7.871h-3.14V5.641h3.14l3.139,7.871V5.641h3.14v15.743h-3.14L110.667,13.512z"/>
		<path fill="#1F376A" d="M118.516,5.641h9.419v3.162h-6.279v3.117h4.71v3.162h-4.71v3.14h6.279v3.162h-9.419V5.641z"/>
		<path fill="#1F376A" d="M129.504,16.641c0-0.673,0.12-1.296,0.359-1.865s0.569-1.068,0.987-1.495c0.418-0.427,0.915-0.761,1.491-1
			c0.576-0.24,1.2-0.36,1.873-0.36c0.449,0,0.822-0.148,1.122-0.445c0.298-0.297,0.448-0.668,0.448-1.113
			c0-0.445-0.15-0.816-0.448-1.113c-0.299-0.297-0.673-0.445-1.122-0.445c-0.448,0-0.822,0.15-1.121,0.449
			c-0.299,0.299-0.448,0.673-0.448,1.121h-3.14c0-0.673,0.12-1.297,0.359-1.873c0.239-0.575,0.572-1.076,0.998-1.502
			c0.426-0.426,0.923-0.759,1.491-0.998c0.568-0.239,1.189-0.359,1.862-0.359s1.297,0.12,1.873,0.359
			c0.576,0.239,1.073,0.572,1.492,0.998c0.418,0.426,0.747,0.927,0.986,1.502c0.239,0.576,0.359,1.2,0.359,1.873
			c0,0.673-0.12,1.294-0.359,1.862c-0.239,0.569-0.569,1.066-0.986,1.492c-0.419,0.425-0.916,0.758-1.492,0.997
			s-1.2,0.359-1.873,0.359c-0.448,0-0.822,0.15-1.121,0.449c-0.299,0.299-0.448,0.673-0.448,1.121v1.57h6.279v3.162h-9.419V16.641z"
			/>
		<path fill="#1F376A" d="M140.493,10.372c0-0.673,0.12-1.297,0.359-1.873c0.239-0.575,0.572-1.076,0.998-1.502
			c0.426-0.426,0.923-0.759,1.491-0.998c0.569-0.239,1.189-0.359,1.862-0.359c0.673,0,1.293,0.12,1.862,0.359
			c0.568,0.239,1.065,0.572,1.491,0.998c0.426,0.426,0.759,0.927,0.998,1.502c0.239,0.576,0.359,1.2,0.359,1.873v6.28
			c0,0.673-0.12,1.297-0.359,1.873c-0.239,0.576-0.572,1.076-0.998,1.502c-0.426,0.426-0.923,0.759-1.491,0.998
			c-0.569,0.239-1.189,0.359-1.862,0.359c-0.673,0-1.293-0.12-1.862-0.359c-0.568-0.239-1.065-0.572-1.491-0.998
			c-0.426-0.426-0.759-0.926-0.998-1.502c-0.239-0.576-0.359-1.2-0.359-1.873V10.372z M143.633,16.652
			c0,0.448,0.149,0.822,0.448,1.121c0.299,0.298,0.673,0.448,1.122,0.448c0.449,0,0.822-0.15,1.121-0.448
			c0.298-0.299,0.448-0.673,0.448-1.121v-6.28c0-0.448-0.15-0.821-0.448-1.121c-0.299-0.299-0.673-0.449-1.121-0.449
			c-0.448,0-0.822,0.15-1.122,0.449c-0.299,0.299-0.448,0.673-0.448,1.121V16.652z"/>
		<path fill="#1F376A" d="M151.482,5.641h4.71v15.743h-3.14V8.803h-1.57V5.641z"/>
		<path fill="#1F376A" d="M160.901,12.168c0.254-0.09,0.508-0.154,0.762-0.192c0.255-0.037,0.524-0.057,0.808-0.057
			c0.673,0,1.293,0.12,1.862,0.36c0.568,0.239,1.065,0.569,1.491,0.988c0.426,0.42,0.759,0.918,0.998,1.495
			c0.239,0.578,0.359,1.204,0.359,1.877c0,0.675-0.12,1.3-0.359,1.878c-0.239,0.577-0.572,1.079-0.998,1.506
			c-0.426,0.427-0.923,0.761-1.491,1c-0.569,0.24-1.189,0.36-1.862,0.36s-1.293-0.12-1.862-0.359
			c-0.569-0.239-1.065-0.572-1.491-0.998s-0.759-0.926-0.998-1.502c-0.239-0.576-0.359-1.2-0.359-1.873v-6.28
			c0-0.673,0.12-1.297,0.359-1.873c0.239-0.575,0.572-1.076,0.998-1.502c0.426-0.426,0.923-0.759,1.491-0.998
			c0.568-0.239,1.189-0.359,1.862-0.359s1.293,0.12,1.862,0.359c0.568,0.239,1.065,0.572,1.491,0.998
			c0.426,0.426,0.759,0.927,0.998,1.502c0.239,0.576,0.359,1.2,0.359,1.873h-3.14c0-0.448-0.15-0.821-0.448-1.121
			c-0.299-0.299-0.673-0.449-1.121-0.449c-0.448,0-0.822,0.149-1.122,0.446c-0.299,0.297-0.448,0.669-0.448,1.114V12.168z
			 M160.901,16.652c0,0.448,0.149,0.822,0.448,1.121c0.299,0.298,0.673,0.448,1.122,0.448c0.449,0,0.822-0.15,1.121-0.448
			c0.298-0.299,0.448-0.673,0.448-1.121c0-0.449-0.15-0.822-0.448-1.121c-0.299-0.299-0.673-0.449-1.121-0.449
			c-0.448,0-0.822,0.15-1.122,0.449C161.049,15.83,160.901,16.204,160.901,16.652z"/>
	</g>
</g>
<g id="Layer_2">
</g>
<g id="Isolation_Mode">
</g>
</svg>
