<?xml version="1.0" encoding="utf-8"?>
<!-- Generator: Adobe Illustrator 18.1.0, SVG Export Plug-In . SVG Version: 6.00 Build 0)  -->
<svg version="1.1" baseProfile="tiny" id="Layer_1" xmlns="http://www.w3.org/2000/svg" xmlns:xlink="http://www.w3.org/1999/xlink"
	 x="0px" y="0px" viewBox="0 231.374 841.89 132.533" xml:space="preserve">
<g id="Layer_2">
</g>
<g id="Isolation_Mode">
</g>
<g id="Isolation_Mode_1_">
</g>
<g id="Isolation_Mode_2_">
</g>
<g id="Isolation_Mode_3_">
</g>
<g id="Layer_1_1_">
	<g>
		<path fill="#FFFFFF" d="M203.517,237.071h24.159v96.807h36.238v24.331h-60.397V237.071L203.517,237.071z"/>
		<path fill="#FFFFFF" d="M300.159,358.209H276V237.071h24.159V358.209L300.159,358.209z"/>
		<path fill="#FFFFFF" d="M336.39,297.64v60.569h-24.159V237.071h24.159l24.159,60.569v-60.569h24.159v121.138h-24.159
			L336.39,297.64z"/>
		<path fill="#FFFFFF" d="M396.786,237.071h72.468v24.331h-48.309v23.986h36.238v24.331h-36.238v24.159h48.309v24.331h-72.468
			V237.071L396.786,237.071z"/>
		<path fill="#FFFFFF" d="M553.818,237.071v84.728c0,5.177-0.918,9.977-2.761,14.409c-1.843,4.432-4.408,8.283-7.679,11.562
			c-3.279,3.279-7.099,5.844-11.475,7.679c-4.377,1.843-9.146,2.761-14.323,2.761s-9.954-0.918-14.323-2.761
			c-4.377-1.835-8.197-4.4-11.475-7.679c-3.279-3.279-5.836-7.13-7.679-11.562c-1.843-4.424-2.769-9.232-2.769-14.409v-84.728
			h24.159v84.728c0,3.451,1.145,6.33,3.451,8.628c2.298,2.298,5.177,3.451,8.628,3.451c3.451,0,6.33-1.145,8.636-3.451
			c2.298-2.298,3.443-5.177,3.443-8.628v-84.728L553.818,237.071L553.818,237.071z"/>
		<path fill="#FFFFFF" d="M565.897,237.071h36.238c5.169,0,9.969,0.918,14.409,2.761c4.424,1.835,8.252,4.4,11.475,7.679
			c3.216,3.279,5.749,7.13,7.593,11.562c1.835,4.432,2.761,9.232,2.761,14.409s-0.918,9.954-2.761,14.323
			c-1.843,4.369-4.377,8.197-7.593,11.475c-3.224,3.279-7.044,5.844-11.475,7.679c-4.432,1.843-9.24,2.761-14.409,2.761h-12.079
			v48.49h-24.159V237.071z M602.135,285.388c3.443,0,6.322-1.137,8.628-3.428c2.298-2.29,3.451-5.138,3.451-8.565
			s-1.153-6.283-3.451-8.565c-2.306-2.283-5.177-3.428-8.628-3.428h-12.079v23.986C590.056,285.388,602.135,285.388,602.135,285.388
			z"/>
	</g>
</g>
<g id="Isolation_Mode_4_">
</g>
</svg>
