<?xml version="1.0" encoding="utf-8"?>
<!-- Generator: Adobe Illustrator 18.1.0, SVG Export Plug-In . SVG Version: 6.00 Build 0)  -->
<svg version="1.1" xmlns="http://www.w3.org/2000/svg" xmlns:xlink="http://www.w3.org/1999/xlink" x="0px" y="0px"
	 viewBox="0 0 22.667 19.333" enable-background="new 0 0 22.667 19.333" xml:space="preserve">
<g id="Layer_1">
	<rect x="0.792" y="1.996" fill="#1F376A" width="20.5" height="3.333"/>
	<rect x="0.792" y="7.746" fill="#1F376A" width="20.5" height="3.333"/>
	<rect x="0.792" y="13.496" fill="#1F376A" width="20.5" height="3.333"/>
</g>
<g id="Layer_2">
</g>
<g id="Isolation_Mode">
</g>
</svg>
